Introduction to webgazeR • webgazeR
…
Sampling Rate

While most commercial eye-trackers sample at a constant rate, webcam eye-trackers do not. Below is some code to calculate the sampling rate of each participant. Ideally, you should not have a sampling rate less than 5 Hz. It has been recommended you drop those values. The below function analyze_sample_rate calculates calculates the sampling rate for each subject and trial in an eye-tracking dataset. It provides overall statistics, including the median and standard deviation of sampling rates in your experiment,and also generates a histogram of median sampling rates by subject with a density plot overlayed.

samp_rate <- analyze_sampling_rate(edat)

Overall Median Sampling Rate (Hz): 24.76936956
Overall Standard Deviation of Sampling Rate (Hz): 7.807913315

Sampling Rate by Trial:
# A tibble: 3,122 × 5
# Groups:   subject [23]
    subject trial max_time n_times    SR
      <int> <int>    <dbl>   <int> <dbl>
 1 11788555     7    3664.     107  29.2
 2 11788555     8    1295       39  30.1
 3 11788555     9    2298.      68  29.6
 4 11788555    10    1743.      52  29.8
 5 11788555    12    1741.      52  29.9
 6 11788555    13    1365.      40  29.3
 7 11788555    15    1404.      40  28.5
 8 11788555    16    1714.      51  29.8
 9 11788555    21    1584.      47  29.7
10 11788555    27    2103.      62  29.5
# ℹ 3,112 more rows

Median Sampling Rate by Subject:
# A tibble: 23 × 2
    subject med_SR
      <int>  <dbl>
 1 11788555  29.6
 2 11788682  29.7
 3 11788824  23.9
 4 11788857   8.79
 5 11789574  11.5
 6 11795362  22.6
 7 11795372  24.8
 8 11795375  28.5
 9 11795376  29.9
10 11795379  30.4
# ℹ 13 more rows
…
